{
	"info": {
		"_postman_id": "3597353d-3f2c-45f0-a089-4f6eef10f509",
		"name": "STAN-633",
		"schema": "https://schema.getpostman.com/json/collection/v2.1.0/collection.json"
	},
	"item": [
		{
			"name": "GetAdverseEventsByPatientId",
			"event": [
				{
					"listen": "test",
					"script": {
						"exec": [
							"pm.test(\"Status code is 200\", function () {\r",
							"    pm.response.to.have.status(200);\r",
							"});"
						],
						"type": "text/javascript"
					}
				}
			],
			"request": {
				"method": "GET",
				"header": [],
				"url": {
					"raw": "https://{{base_url}}/csp/{{namespace}}/api/v1/adverseevents/getAdverseEventsByPatientId/1",
					"protocol": "https",
					"host": [
						"{{base_url}}"
					],
					"path": [
						"csp",
						"{{namespace}}",
						"api",
						"v1",
						"adverseevents",
						"getAdverseEventsByPatientId",
						"1"
					]
				}
			},
			"response": []
		},
		{
			"name": "GetAlertsByPatientId",
			"event": [
				{
					"listen": "test",
					"script": {
						"exec": [
							"pm.test(\"Status code is 200\", function () {\r",
							"    pm.response.to.have.status(200);\r",
							"});"
						],
						"type": "text/javascript"
					}
				}
			],
			"request": {
				"method": "GET",
				"header": [],
				"url": {
					"raw": "https://{{base_url}}/csp/{{namespace}}/api/v1/alerts/getAlertsByPatientId/1",
					"protocol": "https",
					"host": [
						"{{base_url}}"
					],
					"path": [
						"csp",
						"{{namespace}}",
						"api",
						"v1",
						"alerts",
						"getAlertsByPatientId",
						"1"
					]
				}
			},
			"response": []
		},
		{
			"name": "UpdateHCPAlertByNoteId",
			"event": [
				{
					"listen": "test",
					"script": {
						"exec": [
							"pm.test(\"Status code is 200\", function () {\r",
							"    pm.response.to.have.status(200);\r",
							"});"
						],
						"type": "text/javascript"
					}
				}
			],
			"request": {
				"method": "PUT",
				"header": [],
				"url": {
					"raw": "https://{{base_url}}/csp/{{namespace}}/api/v1/alerts/updateHCPAlertByNoteId/1",
					"protocol": "https",
					"host": [
						"{{base_url}}"
					],
					"path": [
						"csp",
						"{{namespace}}",
						"api",
						"v1",
						"alerts",
						"updateHCPAlertByNoteId",
						"1"
					]
				}
			},
			"response": []
		},
		{
			"name": "ApplyTranslations",
			"event": [
				{
					"listen": "test",
					"script": {
						"exec": [
							"pm.test(\"Status code is 200\", function () {\r",
							"    pm.response.to.have.status(200);\r",
							"});"
						],
						"type": "text/javascript"
					}
				}
			],
			"request": {
				"method": "GET",
				"header": [],
				"url": {
					"raw": "https://{{base_url}}/csp/{{namespace}}/api/v1/external/applyTranslations/1/SupportPortal",
					"protocol": "https",
					"host": [
						"{{base_url}}"
					],
					"path": [
						"csp",
						"{{namespace}}",
						"api",
						"v1",
						"external",
						"applyTranslations",
						"1",
						"SupportPortal"
					]
				}
			},
			"response": []
		},
		{
			"name": "GetHealthCareProviderById",
			"event": [
				{
					"listen": "test",
					"script": {
						"exec": [
							"pm.test(\"Status code is 200\", function () {\r",
							"    pm.response.to.have.status(200);\r",
							"});"
						],
						"type": "text/javascript"
					}
				}
			],
			"request": {
				"method": "GET",
				"header": [],
				"url": {
					"raw": "https://{{base_url}}/csp/{{namespace}}/api/v1/healthcareprovider/getHealthCareProviderById/1",
					"protocol": "https",
					"host": [
						"{{base_url}}"
					],
					"path": [
						"csp",
						"{{namespace}}",
						"api",
						"v1",
						"healthcareprovider",
						"getHealthCareProviderById",
						"1"
					]
				}
			},
			"response": []
		},
		{
			"name": "UpdateHealthCareProviderById",
			"event": [
				{
					"listen": "test",
					"script": {
						"exec": [
							"pm.test(\"Status code is 200\", function () {\r",
							"    pm.response.to.have.status(200);\r",
							"});"
						],
						"type": "text/javascript"
					}
				}
			],
			"request": {
				"method": "PUT",
				"header": [],
				"body": {
					"mode": "raw",
					"raw": "{\r\n    \"HealthCareProvider\": {\r\n        \"Id\": \"1\",\r\n        \"Delegate\": {\r\n            \"Designation\": \"\",\r\n            \"EmailAddress\": \"\",\r\n            \"FirstName\": \"\",\r\n            \"FullName\": \" \",\r\n            \"LastName\": \"\",\r\n            \"MobilePhone\": {\r\n                \"AreaCode\": \"\",\r\n                \"CountryCode\": {\r\n                    \"Id\": \"2\",\r\n                    \"Code\": \"US\",\r\n                    \"CountryCode\": 1,\r\n                    \"AddressLayout\": \"\"\r\n                },\r\n                \"Display\": \" \",\r\n                \"Number\": \"\",\r\n                \"PhoneType\": \"\"\r\n            }\r\n        },\r\n        \"EmailAddress\": \"luke.cao+stan5941@rxmxcorp.com\",\r\n        \"ExcludeFromBilling\": \"\",\r\n        \"FaxNumber\": {\r\n            \"AreaCode\": \"\",\r\n            \"CountryCode\": \"\",\r\n            \"Display\": \" \",\r\n            \"Number\": \"\",\r\n            \"PhoneType\": \"\"\r\n        },\r\n        \"FirstName\": \"Test\",\r\n        \"FullName\": \"Test Testing\",\r\n        \"FullReverseName\": \"Testing, Test\",\r\n        \"HCPRegistrationNumber\": \"123456\",\r\n        \"HealthCareProviderMessages\": [],\r\n        \"HealthCareProviderPharmacy\": [],\r\n        \"HealthCareProviderPractice\": [\r\n            {\r\n                \"Id\": \"1||1\",\r\n                \"Practice\": {\r\n                    \"Id\": \"1\",\r\n                    \"Active\": 1,\r\n                    \"Address\": {\r\n                        \"AddressLine1\": \"werta\",\r\n                        \"AddressLine2\": \"Wertanen Road\",\r\n                        \"City\": \"Wakefield\",\r\n                        \"ClearCmtAfterOrder\": 0,\r\n                        \"Comments\": \"\",\r\n                        \"Country\": \"United States\",\r\n                        \"FullAddress\": \"werta, Wertanen Road, Wakefield, MI, 49968\",\r\n                        \"Postcode\": \"49968\",\r\n                        \"State\": \"MI\"\r\n                    },\r\n                    \"Building\": \"\",\r\n                    \"EmailAddress\": \"\",\r\n                    \"LocationType\": {\r\n                        \"Id\": \"3\",\r\n                        \"Code\": \"P\",\r\n                        \"Description\": \"Practice\"\r\n                    },\r\n                    \"Name\": \"TestingForPracticeNameMaximumLengthCausesTheShipmentRequestGeneratingFailedNotSureThisisLongEnoughButIwillKeepTyping\",\r\n                    \"Phone\": {\r\n                        \"AreaCode\": \"\",\r\n                        \"CountryCode\": \"\",\r\n                        \"Display\": \" \",\r\n                        \"Number\": \"\",\r\n                        \"PhoneType\": \"\"\r\n                    },\r\n                    \"PlaceId\": \"\",\r\n                    \"manualAddress\": 0\r\n                },\r\n                \"Active\": 1,\r\n                \"ProviderNumber\": \"\"\r\n            }\r\n        ],\r\n        \"HealthCareProviderSettings\": [],\r\n        \"InActive\": 0,\r\n        \"Initials\": \"TT\",\r\n        \"LastName\": \"Testing\",\r\n        \"MaxNoAssignedPatients\": \"\",\r\n        \"MobilePhone\": {\r\n            \"AreaCode\": \"\",\r\n            \"CountryCode\": {\r\n                \"Id\": \"2\",\r\n                \"Code\": \"US\",\r\n                \"CountryCode\": 1,\r\n                \"AddressLayout\": \"\"\r\n            },\r\n            \"Display\": \" 0455893189\",\r\n            \"Number\": \"0455893189\",\r\n            \"PhoneType\": \"Mobile\"\r\n        },\r\n        \"PracticeAddress\": {\r\n            \"AddressLine1\": \"\",\r\n            \"AddressLine2\": \"\",\r\n            \"City\": \"\",\r\n            \"ClearCmtAfterOrder\": 0,\r\n            \"Comments\": \"\",\r\n            \"Country\": \"\",\r\n            \"FullAddress\": \"\",\r\n            \"Postcode\": \"\",\r\n            \"State\": \"\"\r\n        },\r\n        \"PracticeName\": \"\",\r\n        \"PracticePhone\": {\r\n            \"AreaCode\": \"\",\r\n            \"CountryCode\": {\r\n                \"Id\": \"2\",\r\n                \"Code\": \"US\",\r\n                \"CountryCode\": 1,\r\n                \"AddressLayout\": \"\"\r\n            },\r\n            \"Display\": \" \",\r\n            \"Number\": \"\",\r\n            \"PhoneType\": \"\"\r\n        },\r\n        \"PrimaryInfusionLoc\": \"\",\r\n        \"ProviderNumber\": \"\",\r\n        \"RegApprovedDateTime\": \"\",\r\n        \"RegistrationDateTime\": \"2021-02-08T03:28:45.000Z\",\r\n        \"SendFaxResults\": \"\",\r\n        \"Specialty\": {\r\n            \"Id\": \"2\",\r\n            \"Code\": \"Administration\",\r\n            \"Description\": \"Administration\",\r\n            \"LinkedRole\": {\r\n                \"Id\": \"4\",\r\n                \"Name\": \"Administration\",\r\n                \"Description\": \"Administration\",\r\n                \"Application\": \"Portal\",\r\n                \"HealthcareProvider\": \"\",\r\n                \"DisplayProviderNumber\": \"\",\r\n                \"RegistrationNumberIsMandatory\": \"\",\r\n                \"Active\": \"\",\r\n                \"AppointmentAssignee\": \"\"\r\n            },\r\n            \"LinkedTeamRole\": \"\",\r\n            \"Locale\": \"\",\r\n            \"Project\": \"\"\r\n        },\r\n        \"Title\": \"\",\r\n        \"User\": {\r\n            \"Id\": \"6\",\r\n            \"FirstName\": \"Test\",\r\n            \"LastName\": \"Testing\",\r\n            \"FullName\": \"Test Testing\",\r\n            \"EmailAddress\": \"luke.cao+stan5941@rxmxcorp.com\",\r\n            \"ExternalUserIdentifier\": \"\",\r\n            \"Locale\": \"\",\r\n            \"ExternalUserFlag\": \"\",\r\n            \"Project\": \"\"\r\n        },\r\n        \"manualAddress\": 0\r\n    }\r\n}",
					"options": {
						"raw": {
							"language": "json"
						}
					}
				},
				"url": {
					"raw": "https://{{base_url}}/csp/{{namespace}}/api/v1/healthcareprovider/updateHealthCareProviderById/1",
					"protocol": "https",
					"host": [
						"{{base_url}}"
					],
					"path": [
						"csp",
						"{{namespace}}",
						"api",
						"v1",
						"healthcareprovider",
						"updateHealthCareProviderById",
						"1"
					]
				}
			},
			"response": []
		},
		{
			"name": "GetNotificationById",
			"event": [
				{
					"listen": "test",
					"script": {
						"exec": [
							"pm.test(\"Status code is 200\", function () {\r",
							"    pm.response.to.have.status(200);\r",
							"});"
						],
						"type": "text/javascript"
					}
				}
			],
			"request": {
				"method": "GET",
				"header": [],
				"url": {
					"raw": "https://{{base_url}}/csp/{{namespace}}/api/v1/notifications/getNotificationById/1",
					"protocol": "https",
					"host": [
						"{{base_url}}"
					],
					"path": [
						"csp",
						"{{namespace}}",
						"api",
						"v1",
						"notifications",
						"getNotificationById",
						"1"
					]
				}
			},
			"response": []
		},
		{
			"name": "GetPatientById",
			"event": [
				{
					"listen": "test",
					"script": {
						"exec": [
							"pm.test(\"Status code is 200\", function () {\r",
							"    pm.response.to.have.status(200);\r",
							"});"
						],
						"type": "text/javascript"
					}
				}
			],
			"request": {
				"method": "GET",
				"header": [],
				"url": {
					"raw": "https://{{base_url}}/csp/{{namespace}}/api/v1/patient/getPatientById/2",
					"protocol": "https",
					"host": [
						"{{base_url}}"
					],
					"path": [
						"csp",
						"{{namespace}}",
						"api",
						"v1",
						"patient",
						"getPatientById",
						"2"
					]
				}
			},
			"response": []
		},
		{
			"name": "UpdatePatientById",
			"event": [
				{
					"listen": "test",
					"script": {
						"exec": [
							"pm.test(\"Status code is 200\", function () {\r",
							"    pm.response.to.have.status(200);\r",
							"});"
						],
						"type": "text/javascript"
					}
				}
			],
			"request": {
				"method": "PUT",
				"header": [],
				"body": {
					"mode": "raw",
					"raw": "{\r\n    \"Patient\": {\r\n        \"Id\": \"2\",\r\n        \"AllowAppAccess\": 0,\r\n        \"AllowNotifications\": 0,\r\n        \"AllowNurseContact\": 0,\r\n        \"AppointmentNo\": \"\",\r\n        \"AssignedStatus\": \"Accepted\",\r\n        \"CallStream\": \"\",\r\n        \"CompletedInitialFlow\": 0,\r\n        \"ConfirmedStartDate\": \"\",\r\n        \"ConsentToResults\": 0,\r\n        \"ConsentToTests\": 0\r\n    },\r\n    \"TotalAlerts\": 0,\r\n    \"RequestStatus\": \"\"\r\n}",
					"options": {
						"raw": {
							"language": "json"
						}
					}
				},
				"url": {
					"raw": "https://{{base_url}}/csp/{{namespace}}/api/v1/patient/updatePatientById/2",
					"protocol": "https",
					"host": [
						"{{base_url}}"
					],
					"path": [
						"csp",
						"{{namespace}}",
						"api",
						"v1",
						"patient",
						"updatePatientById",
						"2"
					]
				}
			},
			"response": []
		},
		{
			"name": "GetResultsByPatientId",
			"event": [
				{
					"listen": "test",
					"script": {
						"exec": [
							"pm.test(\"Status code is 200\", function () {\r",
							"    pm.response.to.have.status(200);\r",
							"});"
						],
						"type": "text/javascript"
					}
				}
			],
			"request": {
				"method": "GET",
				"header": [],
				"url": {
					"raw": "https://{{base_url}}/csp/{{namespace}}/api/v1/results/getResultsByPatientId/2",
					"protocol": "https",
					"host": [
						"{{base_url}}"
					],
					"path": [
						"csp",
						"{{namespace}}",
						"api",
						"v1",
						"results",
						"getResultsByPatientId",
						"2"
					]
				}
			},
			"response": []
		},
		{
			"name": "GetPatientShipmentById",
			"event": [
				{
					"listen": "test",
					"script": {
						"exec": [
							"pm.test(\"Status code is 200\", function () {\r",
							"    pm.response.to.have.status(200);\r",
							"});"
						],
						"type": "text/javascript"
					}
				}
			],
			"request": {
				"method": "GET",
				"header": [],
				"url": {
					"raw": "https://{{base_url}}/csp/{{namespace}}/api/v1/shipments/getPatientShipmentById/1",
					"protocol": "https",
					"host": [
						"{{base_url}}"
					],
					"path": [
						"csp",
						"{{namespace}}",
						"api",
						"v1",
						"shipments",
						"getPatientShipmentById",
						"1"
					]
				}
			},
			"response": []
		},
		{
			"name": "GetCodeTable",
			"event": [
				{
					"listen": "test",
					"script": {
						"exec": [
							"pm.test(\"Status code is 200\", function () {\r",
							"    pm.response.to.have.status(200);\r",
							"});"
						],
						"type": "text/javascript"
					}
				}
			],
			"request": {
				"method": "GET",
				"header": [],
				"url": {
					"raw": "https://{{base_url}}/csp/{{namespace}}/api/v1/system/codetable/DB.System.Application",
					"protocol": "https",
					"host": [
						"{{base_url}}"
					],
					"path": [
						"csp",
						"{{namespace}}",
						"api",
						"v1",
						"system",
						"codetable",
						"DB.System.Application"
					]
				}
			},
			"response": []
		},
		{
			"name": "UpdateCodeTable",
			"event": [
				{
					"listen": "test",
					"script": {
						"exec": [
							"pm.test(\"Status code is 200\", function () {\r",
							"    pm.response.to.have.status(200);\r",
							"});"
						],
						"type": "text/javascript"
					}
				}
			],
			"request": {
				"method": "PUT",
				"header": [],
				"body": {
					"mode": "raw",
					"raw": "{\r\n    \"DB.System.Application\": {\r\n        \"Code\": \"SupportPortal\",\r\n        \"Description\": \"Support Portal\",\r\n        \"Id\": \"5\"\r\n    }\r\n}",
					"options": {
						"raw": {
							"language": "json"
						}
					}
				},
				"url": {
					"raw": "https://{{base_url}}/csp/{{namespace}}/api/v1/system/updateCodeTable",
					"protocol": "https",
					"host": [
						"{{base_url}}"
					],
					"path": [
						"csp",
						"{{namespace}}",
						"api",
						"v1",
						"system",
						"updateCodeTable"
					]
				}
			},
			"response": []
		},
		{
			"name": "GetUserById",
			"event": [
				{
					"listen": "test",
					"script": {
						"exec": [
							"pm.test(\"Status code is 200\", function () {\r",
							"    pm.response.to.have.status(200);\r",
							"});"
						],
						"type": "text/javascript"
					}
				}
			],
			"request": {
				"method": "GET",
				"header": [],
				"url": {
					"raw": "https://{{base_url}}/csp/{{namespace}}/api/v1/user/getUserById/1",
					"protocol": "https",
					"host": [
						"{{base_url}}"
					],
					"path": [
						"csp",
						"{{namespace}}",
						"api",
						"v1",
						"user",
						"getUserById",
						"1"
					]
				}
			},
			"response": []
		},
		{
			"name": "UpdateUserById",
			"event": [
				{
					"listen": "test",
					"script": {
						"exec": [
							"pm.test(\"Status code is 200\", function () {\r",
							"    pm.response.to.have.status(200);\r",
							"});"
						],
						"type": "text/javascript"
					}
				}
			],
			"request": {
				"method": "PUT",
				"header": [],
				"body": {
					"mode": "raw",
					"raw": "{\r\n    \"UserAccount\": {\r\n        \"Id\": \"1\",\r\n        \"FirstName\": \"Admin\",\r\n        \"LastName\": \"User\",\r\n        \"FullName\": \"Admin User\",\r\n        \"EmailAddress\": \"admin@rxmxcorp.com\",\r\n        \"ExternalUserIdentifier\": \"\",\r\n        \"Locale\": \"\",\r\n        \"AccountDisabled\": 0,\r\n        \"Role\": {\r\n            \"Id\": \"1\",\r\n            \"Name\": \"Admin\",\r\n            \"Description\": \"System Admin\",\r\n            \"Application\": \"Core\",\r\n            \"HealthcareProvider\": 0,\r\n            \"DisplayProviderNumber\": \"\",\r\n            \"RegistrationNumberIsMandatory\": \"\",\r\n            \"Active\": \"\",\r\n            \"AppointmentAssignee\": \"\"\r\n        },\r\n        \"TestAccount\": 1,\r\n        \"FailedLoginCount\": 0,\r\n        \"MobilePhone\": {\r\n            \"AreaCode\": \"\",\r\n            \"CountryCode\": \"\",\r\n            \"Display\": \" \",\r\n            \"Number\": \"\",\r\n            \"PhoneType\": \"\"\r\n        },\r\n        \"Timezone\": \"\",\r\n        \"Patient\": \"\",\r\n        \"Project\": \"\",\r\n        \"CreatedDateTime\": \"\"\r\n    }\r\n}",
					"options": {
						"raw": {
							"language": "json"
						}
					}
				},
				"url": {
					"raw": "https://{{base_url}}/csp/{{namespace}}/api/v1/user/updateUserById/1",
					"protocol": "https",
					"host": [
						"{{base_url}}"
					],
					"path": [
						"csp",
						"{{namespace}}",
						"api",
						"v1",
						"user",
						"updateUserById",
						"1"
					]
				}
			},
			"response": []
		},
		{
			"name": "GetRoleList",
			"event": [
				{
					"listen": "test",
					"script": {
						"exec": [
							"pm.test(\"Status code is 200\", function () {\r",
							"    pm.response.to.have.status(200);\r",
							"});"
						],
						"type": "text/javascript"
					}
				}
			],
			"request": {
				"method": "GET",
				"header": [],
				"url": {
					"raw": "https://{{base_url}}/csp/{{namespace}}/api/v1/user/getRoleList",
					"protocol": "https",
					"host": [
						"{{base_url}}"
					],
					"path": [
						"csp",
						"{{namespace}}",
						"api",
						"v1",
						"user",
						"getRoleList"
					]
				}
			},
			"response": []
		},
		{
			"name": "UpdateRoleById",
			"event": [
				{
					"listen": "test",
					"script": {
						"exec": [
							"pm.test(\"Status code is 200\", function () {\r",
							"    pm.response.to.have.status(200);\r",
							"});"
						],
						"type": "text/javascript"
					}
				}
			],
			"request": {
				"method": "PUT",
				"header": [],
				"body": {
					"mode": "raw",
					"raw": "{\r\n    \"UserRole\": {\r\n        \"Id\": \"1\",\r\n        \"Name\": \"Admin\",\r\n        \"Description\": \"System Admin\",\r\n        \"Application\": \"Core\",\r\n        \"ReceivesAlerts\": \"\",\r\n        \"HealthcareProvider\": 0,\r\n        \"RestrictPatientEdit\": \"\",\r\n        \"RestrictPatientNew\": \"\",\r\n        \"AllowSelfEnrolment\": \"\",\r\n        \"DefaultHomeMenu\": {\r\n            \"Id\": \"4\",\r\n            \"Code\": \"core.actiondashboard\",\r\n            \"Description\": \"Nurse Dashboard\",\r\n            \"Icon\": \"dashboard\",\r\n            \"MenuOrder\": 10,\r\n            \"Route\": \"/app/actiondashboard\",\r\n            \"SystemMenu\": 1\r\n        },\r\n        \"AutoAcceptPatient\": \"\",\r\n        \"DisplayProviderNumber\": \"\",\r\n        \"RegistrationNumberIsMandatory\": \"\",\r\n        \"Active\": \"\",\r\n        \"AppointmentAssignee\": \"\"\r\n    }\r\n}",
					"options": {
						"raw": {
							"language": "json"
						}
					}
				},
				"url": {
					"raw": "https://{{base_url}}/csp/{{namespace}}/api/v1/user/updateRoleById/1",
					"protocol": "https",
					"host": [
						"{{base_url}}"
					],
					"path": [
						"csp",
						"{{namespace}}",
						"api",
						"v1",
						"user",
						"updateRoleById",
						"1"
					]
				}
			},
			"response": []
		}
	],
	"auth": {
		"type": "oauth2",
		"oauth2": [
			{
				"key": "scope",
				"value": "portal",
				"type": "string"
			},
			{
				"key": "password",
				"value": "V+ak6Gdm+HQdNS8cbiPQHbZIkh4=",
				"type": "string"
			},
			{
				"key": "username",
				"value": "luke.cao+stan5941@rxmxcorp.com",
				"type": "string"
			},
			{
				"key": "tokenType",
				"value": "bearer",
				"type": "string"
			},
			{
				"key": "accessToken",
				"value": "kgb-58XiY98yH1fko85JYSRvzYjnYgiP-M94CShjpT2IaxqTWlKUC29LnHjDy1ipZw-DI2y_8MF1D5HfmwfwQQ",
				"type": "string"
			},
			{
				"key": "clientSecret",
				"value": "gBdJA3qzKbcLPLdj6_FFDmLhmz8fyB9fJAZMMvYbJsXg7UrnvNimjeYwpAg8wYjuQL0EBiaOYgfTlV5dt2eg-w",
				"type": "string"
			},
			{
				"key": "clientId",
				"value": "xq7ZS5DdL1kGZsGC-9eI_eXfCDxfpnVvZxkCgdlb03o",
				"type": "string"
			},
			{
				"key": "accessTokenUrl",
				"value": "https://{{base_url}}/oauth2/token",
				"type": "string"
			},
			{
				"key": "challengeAlgorithm",
				"value": "S256",
				"type": "string"
			},
			{
				"key": "grant_type",
				"value": "password_credentials",
				"type": "string"
			},
			{
				"key": "addTokenTo",
				"value": "header",
				"type": "string"
			},
			{
				"key": "client_authentication",
				"value": "header",
				"type": "string"
			}
		]
	},
	"event": [
		{
			"listen": "prerequest",
			"script": {
				"type": "text/javascript",
				"exec": [
					""
				]
			}
		},
		{
			"listen": "test",
			"script": {
				"type": "text/javascript",
				"exec": [
					""
				]
			}
		}
	],
	"variable": [
		{
			"key": "base_url",
			"value": "localhost:52774"
		},
		{
			"key": "namespace",
			"value": "mayzentau"
		}
	]
}